Replication of Gantman et al. 2024
…
count_good_trials <- eeg_data %>%
  dplyr::filter(good_segment == TRUE) %>%
  dplyr::filter(electrode %in% c("Cz", "Pz")) %>%
  group_by(subject, electrode, word_type, is_word, event_id) %>%
  slice(1) %>%
  group_by(subject, electrode, word_type, is_word) %>%
  summarize(n = n())

`summarise()` has grouped output by 'subject', 'electrode', 'word_type'. You
can override using the `.groups` argument.

count_good_trials

# A tibble: 450 × 5
# Groups:   subject, electrode, word_type [228]
   subject electrode word_type   is_word     n
   <chr>   <chr>     <chr>       <lgl>   <int>
 1 01      Cz        fashion     FALSE       1
 2 01      Cz        fashion     TRUE        3
 3 01      Cz        moral       FALSE      23
 4 01      Cz        moral       TRUE       38
 5 01      Cz        non-fashion FALSE       1
 6 01      Cz        non-fashion TRUE        1
 7 01      Cz        non-moral   FALSE      24
 8 01      Cz        non-moral   TRUE       37
 9 01      Pz        fashion     FALSE       1
10 01      Pz        fashion     TRUE        3
# ℹ 440 more rows
